DEBUT
	DECLARATION
		notes[20], moyenne

	INITIALIZATION
	
	CORPS DU PROGRAMME

	#1st part billy
		Pour i = 1 à 20
			Affiche "Note", i , ": "
			Saisir notes(i)
		Fin Pour

        #2eme part chris
        moyenne = 0
               Pour i = 0 à 20
                   moyenne = moyenne + notes(i)
               FinPour
        moyenne = moyenne / 20	
			
	#3eme partie
	Afficher "Pierre Machin a eu ", moyenne," de moyennes ! Il a sa plachez chez "
	Si moyenne < 5 alors
		Afficher "pole emploi"
	Sinon Si moyenne < 10 alors
			Afficher "Macdo"
		Sinon 	Si moyenne < 15 alors
					Afficher "burger king"
				Sinon
					Afficher "AKKA"
				FinSi
		FinSi
	FinSi

FIN
